/* XPM */
static char * bitcoin16_xpm[] = {
"16 16 109 2",
"  	c None",
". 	c #DBC398",
"+ 	c #B9A581",
"@ 	c #A29172",
"# 	c #E2C99C",
"$ 	c #A59374",
"% 	c #393733",
"& 	c #2D2D2D",
"* 	c #3A3733",
"= 	c #7F725A",
"- 	c #2A2A2A",
"; 	c #35332F",
"> 	c #887960",
", 	c #8F8065",
"' 	c #776A55",
") 	c #A49272",
"! 	c #262626",
"~ 	c #83755C",
"{ 	c #C2AC86",
"] 	c #C1A77D",
"^ 	c #9D8968",
"/ 	c #7D6E56",
"( 	c #DBC297",
"_ 	c #312E2A",
": 	c #222222",
"< 	c #675C4A",
"[ 	c #8E7E63",
"} 	c #C5AE86",
"| 	c #C4AC84",
"1 	c #3F3A31",
"2 	c #A39171",
"3 	c #CFB88F",
"4 	c #252524",
"5 	c #322F2A",
"6 	c #B8A47F",
"7 	c #1F1F1F",
"8 	c #83755B",
"9 	c #645A47",
"0 	c #403A30",
"a 	c #3E382F",
"b 	c #C3AB82",
"c 	c #C9B28B",
"d 	c #39342C",
"e 	c #968467",
"f 	c #9C8B6D",
"g 	c #A08E6F",
"h 	c #1B1B1B",
"i 	c #353028",
"j 	c #9C8B6C",
"k 	c #E1C89C",
"l 	c #5E5340",
"m 	c #C7AF86",
"n 	c #A89574",
"o 	c #695A42",
"p 	c #D8BE91",
"q 	c #4D4537",
"r 	c #A08E6E",
"s 	c #171717",
"t 	c #9C8A6C",
"u 	c #918164",
"v 	c #B6A17D",
"w 	c #453E31",
"x 	c #B39F7B",
"y 	c #BFA984",
"z 	c #B59C74",
"A 	c #998768",
"B 	c #B7A37F",
"C 	c #141414",
"D 	c #312C23",
"E 	c #78684E",
"F 	c #978668",
"G 	c #E6CC9F",
"H 	c #84755B",
"I 	c #9F8C6A",
"J 	c #9A8869",
"K 	c #B8A37F",
"L 	c #DAC297",
"M 	c #27231C",
"N 	c #101010",
"O 	c #A69372",
"P 	c #D1B586",
"Q 	c #E9CFA1",
"R 	c #B7A079",
"S 	c #594F3D",
"T 	c #26221C",
"U 	c #A2906F",
"V 	c #0C0C0C",
"W 	c #605542",
"X 	c #E4C99A",
"Y 	c #E0C393",
"Z 	c #E4C899",
"` 	c #D8BA89",
" .	c #87775A",
"..	c #7B6D53",
"+.	c #4E4535",
"@.	c #7B6C53",
"#.	c #7B6B51",
"$.	c #7A6B52",
"%.	c #796A50",
"&.	c #766850",
"*.	c #0A0A09",
"=.	c #090909",
"-.	c #E2C89C",
";.	c #A28F6F",
">.	c #221D16",
",.	c #050505",
"'.	c #221E16",
").	c #B7A27E",
"!.	c #9F8C6C",
"                                ",
"          . + @ @ + .           ",
"      # $ % & & & & * $ #       ",
"    # = - ; > , ' - - - = #     ",
"    ) ! ! ~ { ] ^ / ! ! ! )     ",
"  ( _ : < [ } | 1 2 3 4 : 5 (   ",
"  6 7 8 9 0 a b c d e f 7 7 6   ",
"  g h i j [ k l m n o p q h g   ",
"  r s s t u v w x y s z A s r   ",
"  B C C C D E F G H C I J C K   ",
"  L M N N O P Q R N N N S T L   ",
"    U V W X Y Z `  .V V V U     ",
"    # ..+.@.#.$.%.&.*.=.@.-.    ",
"      -.;.>.,.,.,.,.'.U -.      ",
"          L ).!.!.).L           ",
"                                "};
